<?xml version="1.0" encoding="UTF-8" standalone="no"?>
<svg
   xmlns:dc="http://purl.org/dc/elements/1.1/"
   xmlns:cc="http://creativecommons.org/ns#"
   xmlns:rdf="http://www.w3.org/1999/02/22-rdf-syntax-ns#"
   xmlns:svg="http://www.w3.org/2000/svg"
   xmlns="http://www.w3.org/2000/svg"
   xmlns:sodipodi="http://sodipodi.sourceforge.net/DTD/sodipodi-0.dtd"
   xmlns:inkscape="http://www.inkscape.org/namespaces/inkscape"
   width="210mm"
   height="297mm"
   viewBox="0 0 210 297"
   version="1.1"
   id="svg8"
   inkscape:version="1.0.2-2 (e86c870879, 2021-01-15)"
   sodipodi:docname="Upgrades.svg">
  <defs
     id="defs2">
    <rect
       x="-3.4017857"
       y="83.154762"
       width="210.15476"
       height="20.410714"
       id="rect1274" />
  </defs>
  <sodipodi:namedview
     id="base"
     pagecolor="#ffffff"
     bordercolor="#666666"
     borderopacity="1.0"
     inkscape:pageopacity="0.0"
     inkscape:pageshadow="2"
     inkscape:zoom="0.7"
     inkscape:cx="292.15611"
     inkscape:cy="482.84673"
     inkscape:document-units="mm"
     inkscape:current-layer="layer1"
     inkscape:document-rotation="0"
     showgrid="false"
     inkscape:window-width="1536"
     inkscape:window-height="801"
     inkscape:window-x="1912"
     inkscape:window-y="-8"
     inkscape:window-maximized="1"
     inkscape:snap-global="false" />
  <metadata
     id="metadata5">
    <rdf:RDF>
      <cc:Work
         rdf:about="">
        <dc:format>image/svg+xml</dc:format>
        <dc:type
           rdf:resource="http://purl.org/dc/dcmitype/StillImage" />
        <dc:title />
      </cc:Work>
    </rdf:RDF>
  </metadata>
  <g
     inkscape:label="Vrstva 1"
     inkscape:groupmode="layer"
     id="layer1">
    <rect
       style="fill:#ffffff;fill-opacity:0.2;stroke:#000000;stroke-width:1;stroke-miterlimit:4;stroke-dasharray:none;stroke-opacity:1"
       id="rect833"
       width="240"
       height="135"
       x="-12.473215"
       y="12.85119"
       ry="0" />
    <rect
       style="fill:#ffffff;fill-opacity:0.2;stroke:#000000;stroke-width:1;stroke-miterlimit:4;stroke-dasharray:none;stroke-opacity:1"
       id="rect835"
       width="39.104431"
       height="14.913955"
       x="-9.8273811"
       y="130.02382" />
    <text
       xml:space="preserve"
       style="font-style:normal;font-weight:normal;font-size:10.5833px;line-height:1.25;font-family:sans-serif;fill:#000000;fill-opacity:1;stroke:none;stroke-width:0.264583"
       x="-3.3153458"
       y="141.07158"
       id="text1005"><tspan
         sodipodi:role="line"
         id="tspan1003"
         x="-3.3153458"
         y="141.07158"
         style="stroke-width:0.264583">Back</tspan></text>
    <rect
       style="fill:#ffffff;fill-opacity:0.2;stroke:#000000;stroke-width:1.04202;stroke-miterlimit:4;stroke-dasharray:none"
       id="rect1264"
       width="230.90144"
       height="49.094894"
       x="-8.6724453"
       y="79.018036" />
    <rect
       style="fill:#ffffff;fill-opacity:0.2;stroke:#000000;stroke-width:1;stroke-miterlimit:4;stroke-dasharray:none"
       id="rect1278"
       width="225.65178"
       height="32.883926"
       x="-6.0476189"
       y="80.886902" />
    <rect
       style="fill:#ffffff;fill-opacity:0.2;stroke:#000000;stroke-width:1;stroke-miterlimit:4;stroke-dasharray:none"
       id="rect1266"
       width="44.223213"
       height="11.339286"
       x="175.00298"
       y="114.90475" />
    <text
       xml:space="preserve"
       style="font-style:normal;font-weight:normal;font-size:9.72762px;line-height:1.25;font-family:sans-serif;fill:#000000;fill-opacity:1;stroke:none;stroke-width:0.243191"
       x="188.20995"
       y="123.20844"
       id="text1270"
       transform="scale(0.99251375,1.0075427)"><tspan
         sodipodi:role="line"
         id="tspan1268"
         x="188.20995"
         y="123.20844"
         style="stroke-width:0.243191">Get</tspan></text>
    <rect
       style="fill:#ffffff;fill-opacity:0.2;stroke:#000000;stroke-width:1.08763;stroke-miterlimit:4;stroke-dasharray:none"
       id="rect1280"
       width="30.528442"
       height="21.457014"
       x="-7.5157094"
       y="18.18667" />
    <text
       xml:space="preserve"
       style="font-style:normal;font-weight:normal;font-size:6.88483px;line-height:1.25;font-family:sans-serif;fill:#000000;fill-opacity:1;stroke:none;stroke-width:0.172121"
       x="-8.0893173"
       y="22.521873"
       id="text1284"
       transform="scale(0.83590578,1.1963071)"><tspan
         sodipodi:role="line"
         id="tspan1282"
         x="-8.0893173"
         y="22.521873"
         style="stroke-width:0.172121">Upgrade</tspan></text>
    <rect
       style="fill:#ffffff;fill-opacity:0.2;stroke:#000000;stroke-width:1.10681;stroke-miterlimit:4;stroke-dasharray:none"
       id="rect1280-1"
       width="31.643187"
       height="21.43783"
       x="39.740906"
       y="17.629299" />
    <text
       xml:space="preserve"
       style="font-style:normal;font-weight:normal;font-size:6.88483px;line-height:1.25;font-family:sans-serif;fill:#000000;fill-opacity:1;stroke:none;stroke-width:0.172121"
       x="48.432632"
       y="22.047945"
       id="text1284-0"
       transform="scale(0.83590577,1.1963071)"><tspan
         sodipodi:role="line"
         id="tspan1282-2"
         x="48.432632"
         y="22.047945"
         style="stroke-width:0.172121">Upgrade</tspan></text>
    <rect
       style="fill:#ffffff;fill-opacity:0.2;stroke:#000000;stroke-width:1.10046;stroke-miterlimit:4;stroke-dasharray:none"
       id="rect1280-4"
       width="31.271566"
       height="21.444185"
       x="85.850822"
       y="18.004099" />
    <text
       xml:space="preserve"
       style="font-style:normal;font-weight:normal;font-size:6.88483px;line-height:1.25;font-family:sans-serif;fill:#000000;fill-opacity:1;stroke:none;stroke-width:0.172121"
       x="103.59805"
       y="22.363897"
       id="text1284-9"
       transform="scale(0.83590577,1.1963071)"><tspan
         sodipodi:role="line"
         id="tspan1282-3"
         x="103.59805"
         y="22.363897"
         style="stroke-width:0.172121">Upgrade</tspan></text>
    <rect
       style="fill:#ffffff;fill-opacity:0.2;stroke:#000000;stroke-width:1.10046;stroke-miterlimit:4;stroke-dasharray:none"
       id="rect1280-8"
       width="31.271566"
       height="21.444185"
       x="133.85381"
       y="17.626123" />
    <text
       xml:space="preserve"
       style="font-style:normal;font-weight:normal;font-size:6.88483px;line-height:1.25;font-family:sans-serif;fill:#000000;fill-opacity:1;stroke:none;stroke-width:0.172121"
       x="161.02437"
       y="22.047943"
       id="text1284-1"
       transform="scale(0.83590577,1.1963071)"><tspan
         sodipodi:role="line"
         id="tspan1282-9"
         x="161.02437"
         y="22.047943"
         style="stroke-width:0.172121">Upgrade</tspan></text>
    <text
       xml:space="preserve"
       style="font-style:normal;font-weight:normal;font-size:10.5833px;line-height:1.25;font-family:sans-serif;fill:#000000;fill-opacity:1;stroke:none;stroke-width:0.264583"
       x="2.6458333"
       y="35.907742"
       id="text1410"><tspan
         sodipodi:role="line"
         id="tspan1408"
         x="2.6458333"
         y="35.907742"
         style="stroke-width:0.264583">1</tspan></text>
    <text
       xml:space="preserve"
       style="font-style:normal;font-weight:normal;font-size:10.5833px;line-height:1.25;font-family:sans-serif;fill:#000000;fill-opacity:1;stroke:none;stroke-width:0.264583"
       x="48.380951"
       y="35.907738"
       id="text1414"><tspan
         sodipodi:role="line"
         id="tspan1412"
         x="48.380951"
         y="35.907738"
         style="stroke-width:0.264583">2</tspan></text>
    <text
       xml:space="preserve"
       style="font-style:normal;font-weight:normal;font-size:10.5833px;line-height:1.25;font-family:sans-serif;fill:#000000;fill-opacity:1;stroke:none;stroke-width:0.264583"
       x="93.360115"
       y="37.797619"
       id="text1418"><tspan
         sodipodi:role="line"
         id="tspan1416"
         x="93.360115"
         y="37.797619"
         style="stroke-width:0.264583">3</tspan></text>
    <text
       xml:space="preserve"
       style="font-style:normal;font-weight:normal;font-size:10.5833px;line-height:1.25;font-family:sans-serif;fill:#000000;fill-opacity:1;stroke:none;stroke-width:0.264583"
       x="142.49704"
       y="36.663692"
       id="text1422"><tspan
         sodipodi:role="line"
         id="tspan1420"
         x="142.49704"
         y="36.663692"
         style="stroke-width:0.264583">4</tspan></text>
    <text
       xml:space="preserve"
       style="font-style:normal;font-weight:normal;font-size:10.5833px;line-height:1.25;font-family:sans-serif;fill:#000000;fill-opacity:1;stroke:none;stroke-width:0.264583"
       x="18.142857"
       y="96.383926"
       id="text867"><tspan
         sodipodi:role="line"
         id="tspan865"
         x="18.142857"
         y="96.383926"
         style="stroke-width:0.264583">Info about  upgrades</tspan></text>
  </g>
</svg>
